[
  {
    "name": "Джавелінка",
    "price": "free",
    "picture": "https://upload.wikimedia.org/wikipedia/commons/thumb/f/ff/Army-fgm148.jpg/300px-Army-fgm148.jpg",
    "id": "001",
    "color": "хакі",
    "isFavourite" : false

  },
  {
    "name": "Байрактарчик",
    "price": "free",
    "picture": "https://defence-ua.com/media/illustration/articles/40262c847990128f.jpg",
    "id": "002",
    "color": "білий",
    "isFavourite" : false
  },
  {
    "name": "Хімарсик",
    "price": "free",
    "picture": "https://static.dw.com/image/61992224_101.jpg",
    "id": "003",
    "color": "хакі",
    "isFavourite" : false
  },
  {
    "name": "Гепардик",
    "price": "free",
    "picture": "https://images.unian.net/photos/2022_04/thumb_files/1200_0_1651145738-4882.jpg",
    "id": "004",
    "color": "хакі з лого",
    "isFavourite" : false
  },
  {
    "name": "Джавелінка",
    "price": "free",
    "picture": "https://upload.wikimedia.org/wikipedia/commons/thumb/f/ff/Army-fgm148.jpg/300px-Army-fgm148.jpg",
    "id": "005",
    "color": "хакі",
    "isFavourite" : false
  },
  {
    "name": "Байрактарчик",
    "price": "free",
    "picture": "https://defence-ua.com/media/illustration/articles/40262c847990128f.jpg",
    "id": "006",
    "color": "білий з лого",
    "isFavourite" : false
  },
  {
    "name": "Хімарсик",
    "price": "free",
    "picture": "https://static.dw.com/image/61992224_101.jpg",
    "id": "007",
    "color": "зелений",
    "isFavourite" : false
  },
  {
    "name": "Гепардик",
    "price": "free",
    "picture": "https://images.unian.net/photos/2022_04/thumb_files/1200_0_1651145738-4882.jpg",
    "id": "008",
    "color": "під замовлення",
    "isFavourite" : false
  },
  {
    "name": "Хімарсик",
    "price": "free",
    "picture": "https://static.dw.com/image/61992224_101.jpg",
    "id": "009",
    "color": "хакі",
    "isFavourite" : false
  },
  {
    "name": "Гепардик",
    "price": "free",
    "picture": "https://images.unian.net/photos/2022_04/thumb_files/1200_0_1651145738-4882.jpg",
    "id": "010",
    "color": "зелений",
    "isFavourite" : false
  }
]