<!--<?xml version="1.0" encoding="utf-8"?>-->
<!--&lt;!&ndash; Generator: Adobe Illustrator 16.0.0, SVG Export Plug-In . SVG Version: 6.00 Build 0)  &ndash;&gt;-->
<!--<!DOCTYPE svg PUBLIC "-//W3C//DTD SVG 1.1//EN" "http://www.w3.org/Graphics/SVG/1.1/DTD/svg11.dtd">-->
<svg version="1.1" id="Layer_1" xmlns="http://www.w3.org/2000/svg" xmlns:xlink="http://www.w3.org/1999/xlink" x="0px" y="0px"
	 width="512px" height="512px" viewBox="0 0 512 512" enable-background="new 0 0 512 512" xml:space="preserve">
<polygon fill="yellow" stroke="yellow" stroke-width="37.6152" stroke-linecap="round" stroke-linejoin="round" stroke-miterlimit="10" points="
	259.216,29.942 330.27,173.919 489.16,197.007 374.185,309.08 401.33,467.31 259.216,392.612 117.104,467.31 144.25,309.08 
	29.274,197.007 188.165,173.919 "/>
</svg>
