[
  {
    "name": "Джавелінка",
    "price": "free",
    "picture": "https://upload.wikimedia.org/wikipedia/commons/thumb/f/ff/Army-fgm148.jpg/300px-Army-fgm148.jpg",
    "id": "001",
    "color": "хакі",
    "isFavourite" : false

  },
  {
    "name": "Байрактарчик",
    "price": "free",
    "picture": "https://defence-ua.com/media/illustration/articles/40262c847990128f.jpg",
    "id": "002",
    "color": "білий",
    "isFavourite" : false
  },
  {
    "name": "Хімарсик",
    "price": "free",
    "picture": "https://static.dw.com/image/61992224_101.jpg",
    "id": "003",
    "color": "хакі",
    "isFavourite" : false
  },
  {
    "name": "Гепардик",
    "price": "free",
    "picture": "https://images.unian.net/photos/2022_04/thumb_files/1200_0_1651145738-4882.jpg",
    "id": "004",
    "color": "хакі з лого",
    "isFavourite" : false
  },
  {
    "name": "NASAMS",
    "price": "free",
    "picture": "https://cdn4.suspilne.media/images/resize/794x1.78/e2adeb7e46b0589a.jpg",
    "id": "005",
    "color": "хакі",
    "isFavourite" : false
  },
  {
    "name": "Navistar MaxxPro",
    "price": "free",
    "picture": "https://www.cybermodeler.com/armor/mrap/maxxpro/140617-f-ap000-001.jpg",
    "id": "006",
    "color": "жовтенький",
    "isFavourite" : false
  },
  {
    "name": "Гаубиця американська",
    "price": "free",
    "picture": "https://topwar.ru/uploads/posts/2022-08/m777-3.jpg",
    "id": "007",
    "color": "зелений",
    "isFavourite" : false
  },
  {
    "name": "Карта України 1900 року",
    "price": "free",
    "picture": "https://c8.alamy.com/zooms/9/d8d51bab693940e6865d2dee48e32fd6/mwfrey.jpg",
    "id": "008",
    "color": "оригінальний",
    "isFavourite" : false
  },
  {
    "name": "Пакети для сміття",
    "price": "free",
    "picture": "https://images.prom.ua/3241842323_w700_h500_pakety-dlya-musora.jpg",
    "id": "009",
    "color": "чорні",
    "isFavourite" : false
  },
  {
    "name": "Допомога від Шольця",
    "price": "free",
    "picture":"https://novoeizdanie.com/wp-content/uploads/2022/05/ftohjlkwiaer0r8.jpg",

    "id": "010",
    "color": "невідомо",
    "isFavourite" : false
  }
]